%YAML 1.1
%TAG !u! tag:unity3d.com,2011:
--- !u!1045 &1
EditorBuildSettings:
  m_ObjectHideFlags: 0
  serializedVersion: 2
  m_Scenes:
  - enabled: 1
    path: Assets/Scenes/TitleScene.unity
    guid: 14c337704afeacd4f95e9c6235f9dfa4
  - enabled: 1
    path: Assets/Scenes/PickCharacterWindow1.unity
    guid: 5eb77b4ab29207f4792e368f2b06f7f4
  - enabled: 1
    path: Assets/Scenes/PickCharacterWindow2.unity
    guid: 0aef5dd80174e8541a4de0f3e9d0863d
  - enabled: 1
    path: Assets/Scenes/TestScene.unity
    guid: 7c4c921426da5894489009da866bc785
  - enabled: 1
    path: Assets/Scenes/GameOverScene.unity
    guid: 6cfe899806af58a4e99dd5ef601de1d4
  m_configObjects: {}
